^C:\USERS\ELYSCHIR\SOURCE\REPOS\HACKINGTERROR\HACKINGTERROR\SOURCE.CPP
C:\USERS\ELYSCHIR\SOURCE\REPOS\HACKINGTERROR\HACKINGTERROR\DEBUG\VC142.PDB
C:\USERS\ELYSCHIR\SOURCE\REPOS\HACKINGTERROR\HACKINGTERROR\DEBUG\VC142.IDB
C:\USERS\ELYSCHIR\SOURCE\REPOS\HACKINGTERROR\HACKINGTERROR\DEBUG\SOURCE.OBJ
